0
-3
-5
10
71
163
288
396
472
491
471
396
289
149
-6
-157
-300
-405
-480
-498
-479
-403
-297
-155
-3
151
292
398
472
491
471
396
289
149
-6
-157
-300
-405
-480
-498
-479
-403
-297
-155
-3
151
292
398
473
492
472
397
291
150
-5
-156
-299
-405
-480
-498
-479
-403
-297
-155
-3
151
292
398
473
492
472
397
290
149
-6
-157
-300
-405
-480
-498
-479
-403
-297
-155
-3
151
292
398
472
491
471
396
289
149
-5
-156
-298
-403
-478
-497
-479
-404
-299
-157
-5
150
290
397
471
490
470
396
289
149
-6
-157
-300
-405
-481
-499
-481
-405
-299
-156
-5
150
291
397
472
492
473
398
291
150
-4
-156
-298
-403
-478
-497
-479
-404
-298
-156
-4
151
292
398
472
491
471
396
290
150
-5
-156
-299
-405
-481
-499
-480
-404
-298
-155
-4
150
291
397
472
492
473
398
291
150
-5
-157
-299
-404
-479
-497
-478
-403
-297
-155
-3
151
291
397
471
490
471
397
291
151
-4
-156
-298
-404
