 
****************************************
Report : resources
Design : FPmul
Version: O-2018.06-SP4
Date   : Fri Dec 18 00:10:13 2020
****************************************


Resource Report for this hierarchy in file
        /home/isa29/harold/MBE/src/fpmul/fpmul_stage1_struct.vhd
=============================================================================
| Cell           | Module         | Parameters | Contained Operations       |
=============================================================================
| mult_x_19      | DW_mult_uns    | a_width=32 | I2/mult_230 (fpmul_stage2_struct_pipelined.vhd:230) |
         | b_width=32 |                            |
| add_x_20       | DW01_inc       | width=25   | I3/I11/add_45 (fpround_fpround.vhd:45) |
| add_x_25       | DW01_add       | width=8    | I3/I9/add_41_aco (fpnormalize_fpnormalize.vhd:41) |
| add_x_27       | DW01_add       | width=8    | I4/I1/add_41_aco (fpnormalize_fpnormalize.vhd:41) |
| DP_OP_46J1_122_7756             |            |                            |
|                | DP_OP_46J1_122_7756 |       |                            |
=============================================================================

Datapath Report for DP_OP_46J1_122_7756
==============================================================================
| Cell                 | Contained Operations                                |
==============================================================================
| DP_OP_46J1_122_7756  | I2/add_222 (fpmul_stage2_struct_pipelined.vhd:222)  |
|                      | I2/add_222_2 (fpmul_stage2_struct_pipelined.vhd:222) |
==============================================================================

==============================================================================
|       |      | Data     |       |                                          |
| Var   | Type | Class    | Width | Expression                               |
==============================================================================
| I1    | PI   | Unsigned | 8     |                                          |
| I2    | PI   | Unsigned | 8     |                                          |
| O1    | PO   | Unsigned | 9     | I1 + I2 + $unsigned(1'b1) (fpmul_stage2_struct_pipelined.vhd:222) |
==============================================================================


Implementation Report
===============================================================================
|                    |                  | Current            | Set            |
| Cell               | Module           | Implementation     | Implementation |
===============================================================================
| mult_x_19          | DW_mult_uns      | pparch (area,speed)                 |
|                    |                  | mult_arch: benc_radix4              |
| add_x_20           | DW01_inc         | pparch (area,speed)                 |
| add_x_25           | DW01_add         | apparch (area)     |                |
| add_x_27           | DW01_add         | apparch (area)     |                |
| DP_OP_46J1_122_7756                   |                    |                |
|                    | DP_OP_46J1_122_7756 | str (area)      |                |
===============================================================================

1
