Running PRESTO HDLC
Presto compilation completed successfully.
Warning: Overwriting design file '/home/isa29/isa-labs/lab03/syn/riscv.db'. (DDB-24)
Warning: Overwriting design file '/home/isa29/isa-labs/lab03/syn/riscv.db'. (DDB-24)
Warning: Overwriting design file '/home/isa29/isa-labs/lab03/syn/riscv.db'. (DDB-24)
Warning: Overwriting design file '/home/isa29/isa-labs/lab03/syn/riscv.db'. (DDB-24)
Warning: Overwriting design file '/home/isa29/isa-labs/lab03/syn/riscv.db'. (DDB-24)
Warning: Overwriting design file '/home/isa29/isa-labs/lab03/syn/riscv.db'. (DDB-24)
Warning: Overwriting design file '/home/isa29/isa-labs/lab03/syn/riscv.db'. (DDB-24)
Warning: Overwriting design file '/home/isa29/isa-labs/lab03/syn/riscv.db'. (DDB-24)
Warning: Overwriting design file '/home/isa29/isa-labs/lab03/syn/riscv.db'. (DDB-24)
Warning: Overwriting design file '/home/isa29/isa-labs/lab03/syn/riscv.db'. (DDB-24)
Warning: Overwriting design file '/home/isa29/isa-labs/lab03/syn/riscv.db'. (DDB-24)
Warning: Overwriting design file '/home/isa29/isa-labs/lab03/syn/riscv.db'. (DDB-24)
Warning: Overwriting design file '/home/isa29/isa-labs/lab03/syn/riscv.db'. (DDB-24)
Warning: Overwriting design file '/home/isa29/isa-labs/lab03/syn/riscv.db'. (DDB-24)
Warning: Overwriting design file '/home/isa29/isa-labs/lab03/syn/riscv.db'. (DDB-24)
Warning: Overwriting design file '/home/isa29/isa-labs/lab03/syn/riscv.db'. (DDB-24)
Warning: Overwriting design file '/home/isa29/isa-labs/lab03/syn/riscv.db'. (DDB-24)
Warning: Overwriting design file '/home/isa29/isa-labs/lab03/syn/riscv.db'. (DDB-24)
Warning: Overwriting design file '/home/isa29/isa-labs/lab03/syn/riscv.db'. (DDB-24)
Warning: Overwriting design file '/home/isa29/isa-labs/lab03/syn/riscv.db'. (DDB-24)
Warning: Overwriting design file '/home/isa29/isa-labs/lab03/syn/riscv.db'. (DDB-24)
Warning: Overwriting design file '/home/isa29/isa-labs/lab03/syn/riscv.db'. (DDB-24)
Warning: Overwriting design file '/home/isa29/isa-labs/lab03/syn/riscv.db'. (DDB-24)
Warning: Overwriting design file '/home/isa29/isa-labs/lab03/syn/riscv.db'. (DDB-24)
Warning: Overwriting design file '/home/isa29/isa-labs/lab03/syn/riscv.db'. (DDB-24)
Warning: Overwriting design file '/home/isa29/isa-labs/lab03/syn/riscv.db'. (DDB-24)
Warning: Overwriting design file '/home/isa29/isa-labs/lab03/syn/riscv.db'. (DDB-24)
Warning: Overwriting design file '/home/isa29/isa-labs/lab03/syn/riscv.db'. (DDB-24)
Warning: Overwriting design file '/home/isa29/isa-labs/lab03/syn/riscv.db'. (DDB-24)
Warning: Overwriting design file '/home/isa29/isa-labs/lab03/syn/riscv.db'. (DDB-24)
Warning: Overwriting design file '/home/isa29/isa-labs/lab03/syn/riscv.db'. (DDB-24)
Warning: Overwriting design file '/home/isa29/isa-labs/lab03/syn/riscv.db'. (DDB-24)
Warning: Overwriting design file '/home/isa29/isa-labs/lab03/syn/riscv.db'. (DDB-24)
Elaborated 1 design.
Current design is now 'riscv'.
Information: Building the design 'datapath'. (HDL-193)
Presto compilation completed successfully.
Information: Building the design 'control_unit'. (HDL-193)
Presto compilation completed successfully.
Information: Building the design 'fetch_unit'. (HDL-193)
Presto compilation completed successfully.
Information: Building the design 'decode_unit'. (HDL-193)

Statistics for case statements in always block at line 140 in file
	'../src/main/01-datapath/02-decode_unit/00-decode_unit_top.vhd'
===============================================
|           Line           |  full/ parallel  |
===============================================
|           140            |    auto/auto     |
===============================================
Presto compilation completed successfully.
Information: Building the design 'execute_unit'. (HDL-193)
Presto compilation completed successfully.
Information: Building the design 'memory_unit'. (HDL-193)

Statistics for case statements in always block at line 75 in file
	'../src/main/01-datapath/04-memory_unit/00-memory_unit_top.vhd'
===============================================
|           Line           |  full/ parallel  |
===============================================
|            78            |    auto/auto     |
===============================================
Presto compilation completed successfully.
Information: Building the design 'write_unit'. (HDL-193)
Presto compilation completed successfully.
Information: Building the design 'id_if_registers'. (HDL-193)

Inferred memory devices in process
	in routine id_if_registers line 24 in file
		'../src/main/01-datapath/pipeline_registers/00-id_if_registers.vhd'.
===============================================================================
|    Register Name    |   Type    | Width | Bus | MB | AR | AS | SR | SS | ST |
===============================================================================
|     O_TAKEN_reg     | Flip-flop |   1   |  N  | N  | N  | N  | N  | N  | N  |
|    O_TARGET_reg     | Flip-flop |  32   |  Y  | N  | N  | N  | N  | N  | N  |
===============================================================================
Presto compilation completed successfully.
Information: Building the design 'if_id_registers'. (HDL-193)

Inferred memory devices in process
	in routine if_id_registers line 28 in file
		'../src/main/01-datapath/pipeline_registers/01-if_id_registers.vhd'.
===============================================================================
|    Register Name    |   Type    | Width | Bus | MB | AR | AS | SR | SS | ST |
===============================================================================
|      O_IR_reg       | Flip-flop |  32   |  Y  | N  | N  | N  | N  | N  | N  |
|      O_PC_reg       | Flip-flop |  32   |  Y  | N  | N  | N  | N  | N  | N  |
|      O_NPC_reg      | Flip-flop |  32   |  Y  | N  | N  | N  | N  | N  | N  |
===============================================================================
Presto compilation completed successfully.
Information: Building the design 'id_ex_registers'. (HDL-193)

Inferred memory devices in process
	in routine id_ex_registers line 50 in file
		'../src/main/01-datapath/pipeline_registers/02-id_ex_registers.vhd'.
===============================================================================
|    Register Name    |   Type    | Width | Bus | MB | AR | AS | SR | SS | ST |
===============================================================================
|      O_STR_reg      | Flip-flop |   2   |  Y  | N  | N  | N  | N  | N  | N  |
|       O_A_reg       | Flip-flop |  32   |  Y  | N  | N  | N  | N  | N  | N  |
|       O_B_reg       | Flip-flop |  32   |  Y  | N  | N  | N  | N  | N  | N  |
|      O_IMM_reg      | Flip-flop |  32   |  Y  | N  | N  | N  | N  | N  | N  |
|      O_PC_reg       | Flip-flop |  32   |  Y  | N  | N  | N  | N  | N  | N  |
|      O_NPC_reg      | Flip-flop |  32   |  Y  | N  | N  | N  | N  | N  | N  |
|      O_DST_reg      | Flip-flop |   5   |  Y  | N  | N  | N  | N  | N  | N  |
|     O_ALUOP_reg     | Flip-flop |  10   |  Y  | N  | N  | N  | N  | N  | N  |
|     O_SEL_A_reg     | Flip-flop |   3   |  Y  | N  | N  | N  | N  | N  | N  |
|     O_SEL_B_reg     | Flip-flop |   3   |  Y  | N  | N  | N  | N  | N  | N  |
|   O_SEL_A_PC_reg    | Flip-flop |   1   |  N  | N  | N  | N  | N  | N  | N  |
|   O_SEL_B_IMM_reg   | Flip-flop |   1   |  N  | N  | N  | N  | N  | N  | N  |
|      O_LD_reg       | Flip-flop |   2   |  Y  | N  | N  | N  | N  | N  | N  |
|    O_LD_SIGN_reg    | Flip-flop |   1   |  N  | N  | N  | N  | N  | N  | N  |
===============================================================================
Presto compilation completed successfully.
Information: Building the design 'ex_mem_registers'. (HDL-193)

Inferred memory devices in process
	in routine ex_mem_registers line 38 in file
		'../src/main/01-datapath/pipeline_registers/03-ex_mem_registers.vhd'.
===============================================================================
|    Register Name    |   Type    | Width | Bus | MB | AR | AS | SR | SS | ST |
===============================================================================
|   O_SEL_DATA_reg    | Flip-flop |   3   |  Y  | N  | N  | N  | N  | N  | N  |
|     O_ADDR_reg      | Flip-flop |  32   |  Y  | N  | N  | N  | N  | N  | N  |
|     O_DATA_reg      | Flip-flop |  32   |  Y  | N  | N  | N  | N  | N  | N  |
|      O_DST_reg      | Flip-flop |   5   |  Y  | N  | N  | N  | N  | N  | N  |
|      O_LD_reg       | Flip-flop |   2   |  Y  | N  | N  | N  | N  | N  | N  |
|    O_LD_SIGN_reg    | Flip-flop |   1   |  N  | N  | N  | N  | N  | N  | N  |
|      O_STR_reg      | Flip-flop |   2   |  Y  | N  | N  | N  | N  | N  | N  |
===============================================================================
Presto compilation completed successfully.
Information: Building the design 'mem_wb_registers'. (HDL-193)

Inferred memory devices in process
	in routine mem_wb_registers line 31 in file
		'../src/main/01-datapath/pipeline_registers/04-mem_wb_registers.vhd'.
===============================================================================
|    Register Name    |   Type    | Width | Bus | MB | AR | AS | SR | SS | ST |
===============================================================================
|      O_LD_reg       | Flip-flop |   2   |  Y  | N  | N  | N  | N  | N  | N  |
|    O_LOADED_reg     | Flip-flop |  32   |  Y  | N  | N  | N  | N  | N  | N  |
|    O_ALUOUT_reg     | Flip-flop |  32   |  Y  | N  | N  | N  | N  | N  | N  |
|      O_DST_reg      | Flip-flop |   5   |  Y  | N  | N  | N  | N  | N  | N  |
===============================================================================
Presto compilation completed successfully.
Information: Building the design 'register_file' instantiated from design 'datapath' with
	the parameters "NBIT=32,NLINE=32". (HDL-193)

Inferred memory devices in process
	in routine register_file_NBIT32_NLINE32 line 38 in file
		'../src/main/01-datapath/register_file/00-register_file_top.vhd'.
===============================================================================
|    Register Name    |   Type    | Width | Bus | MB | AR | AS | SR | SS | ST |
===============================================================================
|    REGISTERS_reg    | Flip-flop | 1024  |  Y  | N  | N  | N  | N  | N  | N  |
===============================================================================
Statistics for MUX_OPs
=====================================================================
|        block name/line          | Inputs | Outputs | # sel inputs |
=====================================================================
| register_file_NBIT32_NLINE32/50 |   32   |   32    |      5       |
| register_file_NBIT32_NLINE32/52 |   32   |   32    |      5       |
=====================================================================
Presto compilation completed successfully.
Warning: Design 'register_file_NBIT32_NLINE32' was renamed to 'register_file_NBIT32_NLINE32_1' to avoid
	a conflict with another design that has the same name but
different parameters. (LINK-17)
Information: Building the design 'inst_decoder'. (HDL-193)

Statistics for case statements in always block at line 45 in file
	'../src/main/02-control_unit/inst_decoder/00-inst_decoder_top.vhd'
===============================================
|           Line           |  full/ parallel  |
===============================================
|            47            |    auto/auto     |
|            95            |    auto/auto     |
|           147            |    auto/auto     |
|           164            |    auto/auto     |
===============================================
Presto compilation completed successfully.
Information: Building the design 'data_forwarder'. (HDL-193)
Presto compilation completed successfully.
Information: Building the design 'stall_generator'. (HDL-193)
Presto compilation completed successfully.
Information: Building the design 'id_data_forwarder'. (HDL-193)

Statistics for case statements in always block at line 33 in file
	'../src/main/01-datapath/02-decode_unit/id_data_forwarder/00-id_data_forwarder.vhd'
===============================================
|           Line           |  full/ parallel  |
===============================================
|            33            |    auto/auto     |
===============================================

Statistics for case statements in always block at line 39 in file
	'../src/main/01-datapath/02-decode_unit/id_data_forwarder/00-id_data_forwarder.vhd'
===============================================
|           Line           |  full/ parallel  |
===============================================
|            39            |    auto/auto     |
===============================================
Presto compilation completed successfully.
Information: Building the design 'ex_data_forwarder'. (HDL-193)

Statistics for case statements in always block at line 34 in file
	'../src/main/01-datapath/03-execute_unit/ex_data_forwarder/00-ex_data_forwarder.vhd'
===============================================
|           Line           |  full/ parallel  |
===============================================
|            34            |    auto/auto     |
===============================================

Statistics for case statements in always block at line 39 in file
	'../src/main/01-datapath/03-execute_unit/ex_data_forwarder/00-ex_data_forwarder.vhd'
===============================================
|           Line           |  full/ parallel  |
===============================================
|            39            |    auto/auto     |
===============================================
Presto compilation completed successfully.
Information: Building the design 'alu' instantiated from design 'execute_unit' with
	the parameters "N_BIT=32,INCLUDE_ABS=1'h0". (HDL-193)

Statistics for case statements in always block at line 67 in file
	'../src/main/01-datapath/03-execute_unit/alu/00-alu_top.vhd'
===============================================
|           Line           |  full/ parallel  |
===============================================
|            70            |    auto/auto     |
===============================================
Presto compilation completed successfully.
Information: Building the design 'mem_data_forwarder'. (HDL-193)
Presto compilation completed successfully.
1
