 
****************************************
Report : power
        -analysis_effort low
Design : riscv
Version: O-2018.06-SP4
Date   : Sun Jan 10 17:29:48 2021
****************************************


Library(s) Used:

    NangateOpenCellLibrary (File: /software/dk/nangate45/synopsys/NangateOpenCellLibrary_typical_ecsm_nowlm.db)


Operating Conditions: typical   Library: NangateOpenCellLibrary
Wire Load Model Mode: top

Design        Wire Load Model            Library
------------------------------------------------
riscv                  5K_hvratio_1_1    NangateOpenCellLibrary


Global Operating Voltage = 1.1  
Power-specific unit information :
    Voltage Units = 1V
    Capacitance Units = 1.000000ff
    Time Units = 1ns
    Dynamic Power Units = 1uW    (derived from V,C,T units)
    Leakage Power Units = 1nW


  Cell Internal Power  =   4.0443 mW   (79%)
  Net Switching Power  =   1.0761 mW   (21%)
                         ---------
Total Dynamic Power    =   5.1204 mW  (100%)

Cell Leakage Power     = 245.5897 uW


                 Internal         Switching           Leakage            Total
Power Group      Power            Power               Power              Power   (   %    )  Attrs
--------------------------------------------------------------------------------------------------
io_pad             0.0000            0.0000            0.0000            0.0000  (   0.00%)
memory             0.0000            0.0000            0.0000            0.0000  (   0.00%)
black_box          0.0000            0.0000            0.0000            0.0000  (   0.00%)
clock_network    125.4303          779.6227        2.9855e+03          908.0386  (  16.92%)
register       3.7660e+03           54.0093        1.2026e+05        3.9402e+03  (  73.43%)
sequential         0.0000            0.0000            0.0000            0.0000  (   0.00%)
combinational    152.8716          242.4916        1.2235e+05          517.7112  (   9.65%)
--------------------------------------------------------------------------------------------------
Total          4.0443e+03 uW     1.0761e+03 uW     2.4559e+05 nW     5.3660e+03 uW
1
