  data arrival time                                   1.24
  data arrival time                                  -1.24
  clock my_clock (rise edge)               0.00       0.00
  clock my_clock (rise edge)               0.70       0.70
  data required time                                  0.59
  data required time                                  0.59
  slack (VIOLATED)                                   -0.65
  data arrival time                                   1.25
  data arrival time                                  -1.25
  clock my_clock (rise edge)               0.00       0.00
  clock my_clock (rise edge)               0.71       0.71
  data required time                                  0.61
  data required time                                  0.61
  slack (VIOLATED)                                   -0.65
  data arrival time                                   1.25
  data arrival time                                  -1.25
  clock my_clock (rise edge)               0.00       0.00
  clock my_clock (rise edge)               0.72       0.72
  data required time                                  0.61
  data required time                                  0.61
  slack (VIOLATED)                                   -0.64
  data arrival time                                   1.25
  data arrival time                                  -1.25
  clock my_clock (rise edge)               0.00       0.00
  clock my_clock (rise edge)               0.73       0.73
  data required time                                  0.63
  data required time                                  0.63
  slack (VIOLATED)                                   -0.62
  data arrival time                                   1.26
  data arrival time                                  -1.26
  clock my_clock (rise edge)               0.00       0.00
  clock my_clock (rise edge)               0.74       0.74
  data required time                                  0.64
  data required time                                  0.64
  slack (VIOLATED)                                   -0.62
