 
****************************************
Report : area
Design : FPmul_dadda
Version: O-2018.06-SP4
Date   : Thu Dec 17 19:08:32 2020
****************************************

Library(s) Used:

    NangateOpenCellLibrary (File: /software/dk/nangate45/synopsys/NangateOpenCellLibrary_typical_ecsm_nowlm.db)

Number of ports:                           98
Number of nets:                          5153
Number of cells:                         4902
Number of combinational cells:           4503
Number of sequential cells:               399
Number of macros/black boxes:               0
Number of buf/inv:                        823
Number of references:                      39

Combinational area:               4936.161949
Buf/Inv area:                      461.510003
Noncombinational area:            1823.961937
Macro/Black Box area:                0.000000
Net Interconnect area:      undefined  (Wire load has zero net area)

Total cell area:                  6760.123886
Total area:                 undefined
1
