Information: Updating graph... (UID-83)
 
****************************************
Report : clocks
Design : FPmul
Version: O-2018.06-SP4
Date   : Sun Dec  6 04:24:12 2020
****************************************

Attributes:
    d - dont_touch_network
    f - fix_hold
    p - propagated_clock
    G - generated_clock
    g - lib_generated_clock

Clock          Period   Waveform            Attrs     Sources
--------------------------------------------------------------------------------
my_clock         0.00   {0 0}               d         {clk}
--------------------------------------------------------------------------------
1
