 
****************************************
Report : area
Design : riscv
Version: O-2018.06-SP4
Date   : Fri Jan  8 16:36:13 2021
****************************************

Library(s) Used:

    NangateOpenCellLibrary (File: /software/dk/nangate45/synopsys/NangateOpenCellLibrary_typical_ecsm_nowlm.db)

Number of ports:                          294
Number of nets:                          7009
Number of cells:                         6676
Number of combinational cells:           5136
Number of sequential cells:              1505
Number of macros/black boxes:               0
Number of buf/inv:                        733
Number of references:                      78

Combinational area:               5551.420040
Buf/Inv area:                      467.362003
Noncombinational area:            6751.079762
Macro/Black Box area:                0.000000
Net Interconnect area:      undefined  (Wire load has zero net area)

Total cell area:                 12302.499802
Total area:                 undefined
1
