Information: Updating design information... (UID-85)
 
****************************************
Report : timing
        -path full
        -delay max
        -max_paths 1
Design : riscv
Version: O-2018.06-SP4
Date   : Sat Jan  9 10:16:37 2021
****************************************

Operating Conditions: typical   Library: NangateOpenCellLibrary
Wire Load Model Mode: top

  Startpoint: I_RST (input port clocked by I_CLK)
  Endpoint: clk_gate_datapath_0/register_file_0/REGISTERS_reg[4]/latch
            (positive level-sensitive latch clocked by I_CLK)
  Path Group: I_CLK
  Path Type: max

  Des/Clust/Port     Wire Load Model       Library
  ------------------------------------------------
  riscv              5K_hvratio_1_1        NangateOpenCellLibrary

  Point                                                   Incr       Path
  --------------------------------------------------------------------------
  clock I_CLK (rise edge)                                 0.00       0.00
  clock network delay (ideal)                             0.00       0.00
  input external delay                                    0.50       0.50 f
  I_RST (in)                                              0.00       0.50 f
  U4050/Z (BUF_X2)                                        0.06       0.56 f
  U8585/ZN (OR2_X1)                                       0.07       0.62 f
  clk_gate_datapath_0/register_file_0/REGISTERS_reg[4]/EN (SNPS_CLOCK_GATE_LOW_riscv_5)
                                                          0.00       0.62 f
  clk_gate_datapath_0/register_file_0/REGISTERS_reg[4]/test_or/ZN (OR2_X1)
                                                          0.05       0.67 f
  clk_gate_datapath_0/register_file_0/REGISTERS_reg[4]/latch/D (DLH_X1)
                                                          0.01       0.68 f
  data arrival time                                                  0.68

  clock I_CLK (rise edge)                                 0.00       0.00
  clock network delay (ideal)                             0.00       0.00
  clock uncertainty                                      -0.07      -0.07
  clk_gate_datapath_0/register_file_0/REGISTERS_reg[4]/latch/G (DLH_X1)
                                                          0.00      -0.07 r
  time borrowed from endpoint                             0.75       0.68
  data required time                                                 0.68
  --------------------------------------------------------------------------
  data required time                                                 0.68
  data arrival time                                                 -0.68
  --------------------------------------------------------------------------
  slack (MET)                                                        0.00

  Time Borrowing Information
  --------------------------------------------------------------
  I_CLK nominal pulse width                               0.90   
  library setup time                                     -0.05   
  --------------------------------------------------------------
  max time borrow                                         0.85   
  --------------------------------------------------------------
  actual time borrow                                      0.75   
  clock uncertainty                                      -0.07   
  --------------------------------------------------------------
  time given to startpoint                                0.68   
  --------------------------------------------------------------


1
